{
    "$schema": "https://xunit.net/schema/current/xunit.runner.schema.json",
    "diagnosticMessages": true,
    "longRunningTestSeconds": 300,
    "parallelizeAssembly": true,
    "parallelizeTestCollections": true
}